[
    { "name": "/header", "url": "http://40.115.56.240:3001" },
    { "name": "/products-list-root", "url": "http://40.115.56.240:3002" },
    { "name": "/footer-root", "url": "http://40.115.56.240:3003" },
    { "name": "/cart-root", "url": "http://40.115.56.240:3000" },
    { "name": "/product-detail-root", "url": "http://40.115.56.240:3005" }
]